<svg width="60" height="60" viewBox="0 0 60 60" version="1.1" xmlns="http://www.w3.org/2000/svg" xmlns:xlink="http://www.w3.org/1999/xlink">
<title>ico_energi</title>
<desc>Created using Figma</desc>
<g id="Canvas" transform="translate(-83 -6330)">
<g id="ico_energi">
<g id="Ellipse">
<use xlink:href="#path0_fill" transform="translate(83 6330)" fill="#F1F7FF"/>
</g>
<g id="noun_899169">
<g id="Group">
<g id="Vector">
<use xlink:href="#path1_fill" transform="translate(91 6330)" fill="#0052A8"/>
</g>
<g id="Vector">
<use xlink:href="#path2_fill" transform="translate(110.131 6352.26)" fill="#0052A8"/>
</g>
</g>
</g>
</g>
</g>
<defs>
<path id="path0_fill" d="M 60 30C 60 46.5685 46.5685 60 30 60C 13.4315 60 0 46.5685 0 30C 0 13.4315 13.4315 0 30 0C 46.5685 0 60 13.4315 60 30Z"/>
<path id="path1_fill" d="M 23.8497 44.4394C 35.1487 43.4882 44 33.7454 44 22.2598C 44 15.9408 41.3304 9.89753 36.6752 5.6774C 31.9559 1.40019 25.8554 -0.566171 19.5063 0.141215C 9.45453 1.26181 1.31482 9.45045 0.153644 19.6122C -0.446074 24.8581 0.717014 29.9463 3.51761 34.3261C 4.88539 36.4656 7.22017 37.743 9.7673 37.743C 13.8754 37.743 17.2183 34.3609 17.2183 30.2046L 17.2183 28.066L 21.0443 28.066C 30.0104 28.066 37.3046 20.6864 37.3046 11.6152L 37.3046 10.6475L 31.5657 10.6475C 22.5995 10.6475 15.3054 18.0271 15.3054 27.0983L 15.3054 30.2046C 15.3054 33.2945 12.8214 35.8076 9.76348 35.8076C 7.8725 35.8076 6.13743 34.8602 5.12355 33.2751C 2.56686 29.2776 1.50516 24.6297 2.05418 19.8348C 3.11493 10.5614 10.543 3.08785 19.7167 2.06596C 25.5197 1.42051 31.0912 3.21462 35.3993 7.11927C 39.6489 10.9717 42.087 16.4904 42.087 22.2598C 42.087 32.7468 34.0066 41.6418 23.6909 42.5108C 22.1816 42.6386 21.0443 43.8791 21.0443 45.3984L 21.0443 47.4974C 17.8047 47.9696 15.3054 50.7885 15.3054 54.1938L 15.3054 55.1615L 13.3924 55.1615L 13.3924 57.0969L 17.2183 57.0969L 17.2183 60L 19.1313 60L 19.1313 57.0969L 24.8702 57.0969L 24.8702 60L 26.7832 60L 26.7832 57.0969L 30.6092 57.0969L 30.6092 55.1615L 28.6962 55.1615L 28.6962 54.1938C 28.6962 50.7885 26.1969 47.9696 22.9573 47.4974L 22.9573 45.3984C 22.9573 44.8952 23.3408 44.482 23.8497 44.4394ZM 31.5657 12.5829L 35.36 12.5829C 34.8655 20.1367 28.634 26.1306 21.0443 26.1306L 17.2499 26.1306C 17.7444 18.5768 23.9759 12.5829 31.5657 12.5829ZM 26.7832 54.1938L 26.7832 55.1615L 17.2183 55.1615L 17.2183 54.1938C 17.2183 51.5259 19.3637 49.3553 22.0008 49.3553C 24.6378 49.3553 26.7832 51.5259 26.7832 54.1938Z"/>
<path id="path2_fill" d="M 1.91298 0L 0 0L 0 1.93539L 1.91298 1.93539L 1.91298 0Z"/>
</defs>
</svg>
